[gd_scene load_steps=3 format=2]

[ext_resource path="res://levels/Level.tscn" type="PackedScene" id=1]
[ext_resource path="res://levels/objectplacers/Box.tscn" type="PackedScene" id=2]

[node name="Level3" instance=ExtResource( 1 )]
level_number = 3
start_message = "We should probably push that box out of the way. Or not. What would I know, I'm just a highly sophisticated, sentient, errorless, talking robot..."

[node name="TileMap" parent="." index="1"]
tile_data = PoolIntArray( -327679, 0, 0, -327678, 0, 0, -262144, 0, 0, -262143, 0, 0, -262142, 0, 0, -262141, 0, 0, -131073, 0, 0, -196608, 5, 0, -196607, 13, 0, -196606, 3, 0, -196605, 5, 0, -196604, 0, 0, -196603, 0, 0, -65538, 0, 0, -65537, 0, 0, -131072, 13, 0, -131071, 3, 0, -131070, 13, 0, -131069, 13, 0, -131068, 10, 0, -131067, 0, 0, -131066, 0, 0, -2, 0, 0, -1, 11, 0, -65536, 13, 0, -65535, 13, 0, -65534, 5, 0, -65533, 0, 0, -65532, 0, 0, -65531, 0, 0, 65534, 0, 0, 65535, 0, 0, 0, 2, 0, 1, 0, 0, 2, 0, 0, 131071, 0, 0, 65536, 0, 0, 65537, 0, 0 )

[node name="Box" parent="Objects" index="1" instance=ExtResource( 2 )]
margin_left = 64.0
margin_top = -128.0
margin_right = 128.0
margin_bottom = -64.0

[node name="Text" parent="CanvasLayer/Dialogue" index="1"]
text = ""
