[gd_scene load_steps=6 format=2]

[ext_resource path="res://levels/Level.tscn" type="PackedScene" id=1]
[ext_resource path="res://levels/objects/Robot2.tscn" type="PackedScene" id=2]
[ext_resource path="res://levels/objectplacers/Conveyor3.tscn" type="PackedScene" id=3]
[ext_resource path="res://levels/objectplacers/Box3.tscn" type="PackedScene" id=4]
[ext_resource path="res://assets/beep_pumpkin/beep_pumpkin_down.tres" type="Texture" id=5]

[node name="Level13" instance=ExtResource( 1 )]
music = 4
level_number = 13
start_message = "I trust you to take me - to take me… to take… me…? Take me where? Where are we going?"

[node name="TileMap" parent="." index="1"]
tile_data = PoolIntArray( -196613, 25, 0, -196612, 24, 0, -196611, 25, 0, -196610, 25, 0, -196609, 24, 0, -262144, 25, 0, -131077, 25, 0, -131076, 23, 0, -131075, 26, 0, -131074, 30, 0, -131073, 23, 0, -196608, 26, 0, -65541, 24, 0, -65540, 23, 0, -65539, 23, 0, -65538, 23, 0, -65537, 23, 0, -131072, 25, 0, -6, 25, 0, -5, 25, 0, -4, 23, 0, -3, 24, 0, -2, 25, 0, -1, 23, 0, -65536, 24, 0, -65535, 25, 0, 65530, 25, 0, 65531, 26, 0, 65532, 28, 0, 65533, 25, 0, 65534, 23, 0, 65535, 23, 0, 0, 28, 0, 1, 25, 0, 131066, 25, 0, 131067, 25, 0, 131068, 23, 0, 131069, 25, 0, 131070, 23, 0, 131071, 23, 0, 65536, 23, 0, 65537, 26, 0, 196602, 25, 0, 196603, 24, 0, 196604, 23, 0, 196605, 24, 0, 196606, 23, 0, 196607, 23, 0, 131072, 24, 0, 131073, 25, 0, 262138, 25, 0, 262139, 23, 0, 262140, 32, 0, 262141, 25, 0, 262142, 25, 0, 262143, 27, 0, 196608, 25, 0, 327674, 26, 0, 327675, 24, 0, 327676, 23, 0, 327677, 25, 0, 327678, 24, 0, 327679, 25, 0, 262144, 25, 0, 393210, 25, 0, 393211, 30, 0, 393212, 23, 0, 393213, 25, 0, 393214, 26, 0, 458746, 24, 0, 458747, 25, 0, 458748, 23, 0, 458749, 31, 0, 458750, 25, 0, 524283, 25, 0, 524284, 24, 0, 524285, 25, 0, 524286, 25, 0 )

[node name="Robot" parent="Objects" index="0"]
texture = ExtResource( 5 )
object = ExtResource( 2 )

[node name="Box3" parent="Objects" index="1" instance=ExtResource( 4 )]
margin_left = -64.0
margin_top = 64.0
margin_right = 0.0
margin_bottom = 128.0

[node name="Box4" parent="Objects" index="2" instance=ExtResource( 4 )]
margin_left = -320.0
margin_top = 192.0
margin_right = -256.0
margin_bottom = 256.0

[node name="Conveyor6" parent="Objects" index="3" instance=ExtResource( 3 )]
margin_left = -64.0
margin_top = -64.0
margin_right = 0.0
margin_bottom = 0.0

[node name="Conveyor7" parent="Objects" index="4" instance=ExtResource( 3 )]
margin_left = -128.0
margin_top = 128.0
margin_right = -64.0
margin_bottom = 192.0
direction = Vector2( 1, 0 )

[node name="Conveyor8" parent="Objects" index="5" instance=ExtResource( 3 )]
margin_left = -64.0
margin_top = -192.0
margin_right = 0.0
margin_bottom = -128.0
direction = Vector2( -1, 0 )

[node name="Conveyor9" parent="Objects" index="6" instance=ExtResource( 3 )]
margin_left = -256.0
margin_top = 320.0
margin_right = -192.0
margin_bottom = 384.0
direction = Vector2( -1, 0 )

[node name="Conveyor10" parent="Objects" index="7" instance=ExtResource( 3 )]
margin_left = -320.0
margin_top = 192.0
margin_right = -256.0
margin_bottom = 256.0
direction = Vector2( 1, 0 )

[node name="Light2D" parent="Camera" index="0"]
visible = true

[node name="StaticPaper" parent="CanvasLayer" index="6"]
visible = false

[node name="StaticPaperVignette2" parent="CanvasLayer" index="8"]
visible = true
